{
  "authors": [
    "Christopho"
  ],
  "categories": [
    "Solarus"
  ],
  "creation_date": "2012-04-01",
  "excerpt": "Notre jeu parodique Zelda Mystery of Solarus XD est disponible y a un an exactement. Il a été téléchargé un peu plus de 14000 fois. Pour....",
  "id": "2012-04-01-zelda-mystery-of-solarus-xd-fete-ses-1-an",
  "image_thumbnail": "../../../../../assets/blog/default_article_thumbnail.jpg",
  "page_override": {
    "meta_description": "",
    "meta_image": "../../../../../assets/images/meta_image_fallback.jpg",
    "meta_title": "Zelda Mystery of Solarus XD fête ses 1 an !",
    "parent": "news",
    "slug": "news/2012-04-01-zelda-mystery-of-solarus-xd-fete-ses-1-an",
    "title": "Zelda Mystery of Solarus XD fête ses 1 an !"
  },
  "page_slug": "news/2012-04-01-zelda-mystery-of-solarus-xd-fete-ses-1-an",
  "publish": true,
  "title": "Zelda Mystery of Solarus XD fête ses 1 an !"
}