{
  "authors": [
    "Christopho"
  ],
  "categories": [
    "Solarus"
  ],
  "creation_date": "2001-09-15",
  "excerpt": "Honte à moi ! Une des nouvelles images que j'ai mises en ligne récemment (du donjon 4) n'apparaissait pas dans la galerie ! Mille excuses ! Mais....",
  "id": "2001-09-15-oups",
  "image_thumbnail": "../../../../../assets/blog/default_article_thumbnail.jpg",
  "page_override": {
    "meta_description": "",
    "meta_image": "../../../../../assets/images/meta_image_fallback.jpg",
    "meta_title": "Oups ; )",
    "parent": "news",
    "slug": "news/2001-09-15-oups",
    "title": "Oups ; )"
  },
  "page_slug": "news/2001-09-15-oups",
  "publish": true,
  "title": "Oups ; )"
}