{
  "excerpt": "Discover Solarus.",
  "id": "book-chapter-solarus-official-guide-basics-introduction",
  "index": 1,
  "origin_tree": "development/tutorials/solarus-official-guide",
  "page_override": {
    "meta_description": "Discover Solarus.",
    "meta_image": "../../../../book/tutorial/solarus-official-guide/images/thumbnail.png",
    "meta_title": "Introduction",
    "parent": "development/tutorials/solarus-official-guide/basics",
    "slug": "development/tutorials/solarus-official-guide/basics/introduction",
    "title": "Introduction"
  },
  "page_slug": "development/tutorials/solarus-official-guide/basics/introduction",
  "publish": true,
  "title": "Introduction"
}
