{
  "authors": [
    "Christopho"
  ],
  "categories": [
    "Solarus"
  ],
  "creation_date": "2006-04-01",
  "excerpt": "L'heure est venue. Une aire nouvelle est arriver. Je suis désormé le seul mètre de Zelda Solarus. Vous n'auriez pas dû sous-estimez la puissance....",
  "id": "2006-04-01-les-legumes-vaincront",
  "image_thumbnail": "../../../../../assets/blog/default_article_thumbnail.jpg",
  "page_override": {
    "meta_description": "",
    "meta_image": "../../../../../assets/images/meta_image_fallback.jpg",
    "meta_title": "Les légumes vaincront !",
    "parent": "news",
    "slug": "news/2006-04-01-les-legumes-vaincront",
    "title": "Les légumes vaincront !"
  },
  "page_slug": "news/2006-04-01-les-legumes-vaincront",
  "publish": true,
  "title": "Les légumes vaincront !"
}