{
  "authors": [
    "Christopho"
  ],
  "categories": [
    "Solarus"
  ],
  "creation_date": "2006-04-01",
  "excerpt": "Super Tomate a été arrêtée par le GLOUPS (Groupe de Lutte Obstinée et Urgente contre les Plantes Solanacées). Les codes du site que j'ai....",
  "id": "2006-04-01-super-tomate-a-ete-arretee",
  "image_thumbnail": "../../../../../assets/blog/default_article_thumbnail.jpg",
  "page_override": {
    "meta_description": "",
    "meta_image": "../../../../../assets/images/meta_image_fallback.jpg",
    "meta_title": "Super Tomate a été arrêtée !",
    "parent": "news",
    "slug": "news/2006-04-01-super-tomate-a-ete-arretee",
    "title": "Super Tomate a été arrêtée !"
  },
  "page_slug": "news/2006-04-01-super-tomate-a-ete-arretee",
  "publish": true,
  "title": "Super Tomate a été arrêtée !"
}