{
  "authors": [
    "Christopho"
  ],
  "categories": [
    "Solarus"
  ],
  "creation_date": "2001-02-02",
  "excerpt": "Je travaillais sur ce grand projet dans le secret le plus complet depuis un mois déjà, et aujourd'hui nous vous le dévoilons officiellement. Il....",
  "id": "2001-02-02-le-projet-est-devoile",
  "image_thumbnail": "../../../../../assets/blog/default_article_thumbnail.jpg",
  "page_override": {
    "meta_description": "",
    "meta_image": "../../../../../assets/images/meta_image_fallback.jpg",
    "meta_title": "Le projet est dévoilé !",
    "parent": "news",
    "slug": "news/2001-02-02-le-projet-est-devoile",
    "title": "Le projet est dévoilé !"
  },
  "page_slug": "news/2001-02-02-le-projet-est-devoile",
  "publish": true,
  "title": "Le projet est dévoilé !"
}