{
  "authors": [
    "Christopho"
  ],
  "categories": [
    "Solarus"
  ],
  "creation_date": "2002-05-06",
  "excerpt": "Et oui, le design est arrivé plus tôt que prévu !\nJ'éspère que les couleurs vous plaisent, si c'est le cas, nous les adapterons au forum pour....",
  "id": "2002-05-06-deja",
  "image_thumbnail": "../../../../../assets/blog/default_article_thumbnail.jpg",
  "page_override": {
    "meta_description": "",
    "meta_image": "../../../../../assets/images/meta_image_fallback.jpg",
    "meta_title": "Déjà ?",
    "parent": "news",
    "slug": "news/2002-05-06-deja",
    "title": "Déjà ?"
  },
  "page_slug": "news/2002-05-06-deja",
  "publish": true,
  "title": "Déjà ?"
}