{
    "authors": [
      "Hugo Hromic"
    ],
    "categories": [
      "Solarus"
    ],
    "creation_date": "2019-08-20",
    "excerpt": "La dernière version de Solarus est intégrée à Retropie.",
    "id": "2019-08-20-solarus-on-retropie",
    "image_thumbnail": "2019-08-20-solarus-on-retropie/cover.jpg",
    "page_override": {
      "meta_description": "La dernière version de Solarus est intégrée à Retropie.",
      "meta_image": "../../../../../assets/images/meta_image_fallback.jpg",
      "meta_title": "Solarus dans RetroPie",
      "parent": "news",
      "slug": "news/2019-08-20-solarus-on-retropie",
      "title": "Solarus dans RetroPie"
    },
    "page_slug": "news/2019-08-20-solarus-on-retropie",
    "publish": true,
    "title": "Solarus dans RetroPie"
  }
