{
  "has_breadcrumb": true,
  "meta_description": "Contactez l'équipe derrière le projet de moteur de jeu Solarus.",
  "meta_image": "../../../assets/images/meta_image_fallback.jpg",
  "meta_title": "Contact",
  "parent": "about",
  "publish": true,
  "slug": "about/contact",
  "title": "Contact"
}