{
  "authors": [
    "Christopho"
  ],
  "categories": [
    "Solarus"
  ],
  "creation_date": "2008-10-13",
  "excerpt": "Comme annoncé dans la précédente nouvelle, le menu de pause est désormais terminé. Autrement dit, les deux derniers écrans ont été réalisés....",
  "id": "2008-10-13-le-menu-de-pause-est-fini",
  "image_thumbnail": "../../../../../assets/blog/default_article_thumbnail.jpg",
  "page_override": {
    "meta_description": "",
    "meta_image": "../../../../../assets/images/meta_image_fallback.jpg",
    "meta_title": "Le menu de pause est fini !",
    "parent": "news",
    "slug": "news/2008-10-13-le-menu-de-pause-est-fini",
    "title": "Le menu de pause est fini !"
  },
  "page_slug": "news/2008-10-13-le-menu-de-pause-est-fini",
  "publish": true,
  "title": "Le menu de pause est fini !"
}