{
  "authors": [
    "Christopho"
  ],
  "categories": [
    "Solarus"
  ],
  "creation_date": "2001-07-19",
  "excerpt": "Vous vous demandez comment je peux faire pour programmer un jeu tel que Zelda : Mystery of Solarus ? Et plus généralement comment fonctionne RPG....",
  "id": "2001-07-19-mise-a-jour-de-la-page-rpg-maker-2000",
  "image_thumbnail": "../../../../../assets/blog/default_article_thumbnail.jpg",
  "page_override": {
    "meta_description": "",
    "meta_image": "../../../../../assets/images/meta_image_fallback.jpg",
    "meta_title": "Mise à jour de la page RPG Maker 2000",
    "parent": "news",
    "slug": "news/2001-07-19-mise-a-jour-de-la-page-rpg-maker-2000",
    "title": "Mise à jour de la page RPG Maker 2000"
  },
  "page_slug": "news/2001-07-19-mise-a-jour-de-la-page-rpg-maker-2000",
  "publish": true,
  "title": "Mise à jour de la page RPG Maker 2000"
}