{
  "authors": [
    "Christopho"
  ],
  "categories": [
    "Solarus"
  ],
  "creation_date": "2001-07-09",
  "excerpt": "La démo avait un petit défaut technique à déplorer : on ne voyait pas l'animation de l'Epée lorsque Link combattait. RPG Maker oblige. Pour....",
  "id": "2001-07-09-nouveau-l-animation-de-l-epee-de-link",
  "image_thumbnail": "../../../../../assets/blog/default_article_thumbnail.jpg",
  "page_override": {
    "meta_description": "",
    "meta_image": "../../../../../assets/images/meta_image_fallback.jpg",
    "meta_title": "Nouveau : l'animation de l'Epée de Link !",
    "parent": "news",
    "slug": "news/2001-07-09-nouveau-l-animation-de-l-epee-de-link",
    "title": "Nouveau : l'animation de l'Epée de Link !"
  },
  "page_slug": "news/2001-07-09-nouveau-l-animation-de-l-epee-de-link",
  "publish": true,
  "title": "Nouveau : l'animation de l'Epée de Link !"
}