{
  "excerpt": "The map script allows to program the behavior of its entities: opening a door, showing a treasure chest, etc.",
  "id": "book-chapter-solarus-video-tutorial-basics-map-scripts",
  "index": 15,
  "origin_tree": "development/tutorials/solarus-video-tutorial",
  "page_override": {
    "meta_description": "The map script allows to program the behavior of its entities: opening a door, showing a treasure chest, etc.",
    "meta_image": "../../../../book/tutorial/solarus-video-tutorial/images/thumbnail.png",
    "meta_title": "Map scripts",
    "parent": "development/tutorials/solarus-video-tutorial",
    "slug": "development/tutorials/solarus-video-tutorial/map-scripts",
    "title": "Map scripts"
  },
  "page_slug": "development/tutorials/solarus-video-tutorial/map-scripts",
  "publish": true,
  "title": "Map scripts"
}
