{
  "authors": [
    "Olivier Cléro"
  ],
  "categories": [
    "Solarus"
  ],
  "creation_date": "2018-06-16",
  "excerpt": "\r\n\r\nWith the recent purchase of Github by Microsoft, the Solarus Team has decided to leave Github. We choose its alternative Gitlab, which we already....",
  "id": "2018-06-16-solarus-has-moved-to-gitlab",
  "image_thumbnail": "../../../../../assets/blog/default_article_thumbnail.jpg",
  "page_override": {
    "meta_description": "",
    "meta_image": "../../../../../assets/images/meta_image_fallback.jpg",
    "meta_title": "Solarus has moved to Gitlab",
    "parent": "news",
    "slug": "news/2018-06-16-solarus-has-moved-to-gitlab",
    "title": "Solarus has moved to Gitlab"
  },
  "page_slug": "news/2018-06-16-solarus-has-moved-to-gitlab",
  "publish": true,
  "title": "Solarus has moved to Gitlab"
}