{
  "excerpt": "Comment programmer plusieurs dialogues interactifs avec un personnage non-joueur.",
  "id": "book-chapter-solarus-video-tutorial-basics-dialogs-with-npc",
  "index": 18,
  "origin_tree": "development/tutorials/solarus-video-tutorial",
  "page_override": {
    "meta_description": "Comment programmer plusieurs dialogues interactifs avec un personnage non-joueur.",
    "meta_image": "../../../../book/tutorial/solarus-video-tutorial/images/thumbnail.png",
    "meta_title": "Dialoguer avec un personnage non-joueur",
    "parent": "development/tutorials/solarus-video-tutorial",
    "slug": "development/tutorials/solarus-video-tutorial/dialogs-with-npc",
    "title": "Dialoguer avec un personnage non-joueur"
  },
  "page_slug": "development/tutorials/solarus-video-tutorial/dialogs-with-npc",
  "publish": true,
  "title": "Dialoguer avec un personnage non-joueur"
}
