{
  "authors": [
    "Christopho"
  ],
  "categories": [
    "Solarus"
  ],
  "creation_date": "2001-11-25",
  "excerpt": "Je serai bref en vous annonçant que vous pouvez écouter et télécharger les musiques du jeu au format MIDI dans la section prévue à cet effet....",
  "id": "2001-11-25-musiques-midi",
  "image_thumbnail": "../../../../../assets/blog/default_article_thumbnail.jpg",
  "page_override": {
    "meta_description": "",
    "meta_image": "../../../../../assets/images/meta_image_fallback.jpg",
    "meta_title": "Musiques MIDI",
    "parent": "news",
    "slug": "news/2001-11-25-musiques-midi",
    "title": "Musiques MIDI"
  },
  "page_slug": "news/2001-11-25-musiques-midi",
  "publish": true,
  "title": "Musiques MIDI"
}