{
  "authors": [
    "Christopho"
  ],
  "categories": [
    "Solarus"
  ],
  "creation_date": "2017-03-29",
  "excerpt": "Aujourd'hui on vous dévoile un tout petit peu plus de détails sur le désert de Zelda Mercuris' Chest, qui est pour ne rien vous cacher une de mes....",
  "id": "2017-03-29-le-desert",
  "image_thumbnail": "../../../../../assets/blog/default_article_thumbnail.jpg",
  "page_override": {
    "meta_description": "",
    "meta_image": "../../../../../assets/images/meta_image_fallback.jpg",
    "meta_title": "Le désert",
    "parent": "news",
    "slug": "news/2017-03-29-le-desert",
    "title": "Le désert"
  },
  "page_slug": "news/2017-03-29-le-desert",
  "publish": true,
  "title": "Le désert"
}