{
  "has_breadcrumb": true,
  "meta_description": "Legal information (legal form, licenses) about the Solarus project.",
  "meta_image": "../../../assets/images/meta_image_fallback.jpg",
  "meta_title": "Legal Information",
  "parent": "about",
  "publish": true,
  "slug": "about/legal",
  "title": "Legal Information"
}