{
  "has_breadcrumb": true,
  "meta_description": "The French Nonprofit Organization that promotes Solarus.",
  "meta_image": "../../../assets/images/meta_image_fallback.jpg",
  "meta_title": "Nonprofit Organization",
  "parent": "about",
  "publish": true,
  "slug": "about/nonprofit-organization",
  "title": "Nonprofit Organization"
}