{
  "authors": [
    "Christopho"
  ],
  "categories": [
    "Solarus"
  ],
  "creation_date": "2009-07-31",
  "excerpt": "Bonjour à tous, Aujourd'hui nous vous dévoilons 6 nouveaux artworks de [url=http://www.zelda-solarus.com/jeu-zsdx]Zelda : Mystery of Solarus....",
  "id": "2009-07-31-zelda-solarus-dx-6-nouveaux-artworks-de-neovyse",
  "image_thumbnail": "../../../../../assets/blog/default_article_thumbnail.jpg",
  "page_override": {
    "meta_description": "",
    "meta_image": "../../../../../assets/images/meta_image_fallback.jpg",
    "meta_title": "Zelda Solarus DX : 6 nouveaux artworks de Neovyse",
    "parent": "news",
    "slug": "news/2009-07-31-zelda-solarus-dx-6-nouveaux-artworks-de-neovyse",
    "title": "Zelda Solarus DX : 6 nouveaux artworks de Neovyse"
  },
  "page_slug": "news/2009-07-31-zelda-solarus-dx-6-nouveaux-artworks-de-neovyse",
  "publish": true,
  "title": "Zelda Solarus DX : 6 nouveaux artworks de Neovyse"
}