{
  "excerpt": "Chapter 07 of the walkthrough for The Legend of Zelda: Mystery of Solarus DX.",
  "id": "book-chapter-the-legend-of-zelda-mystery-of-solarus-dx-walkthrough-07",
  "index": 7,
  "origin_tree": "games/the-legend-of-zelda-mystery-of-solarus-dx/walkthrough",
  "page_override": {
    "meta_description": "Chapter 07 of the walkthrough for The Legend of Zelda: Mystery of Solarus DX.",
    "meta_image": "../../../assets/images/meta_image_fallback.jpg",
    "meta_title": "The Signs of Madness",
    "parent": "games/the-legend-of-zelda-mystery-of-solarus-dx/walkthrough",
    "slug": "games/the-legend-of-zelda-mystery-of-solarus-dx/walkthrough/07-signs-of-madness",
    "title": "The Signs of Madness"
  },
  "page_slug": "games/the-legend-of-zelda-mystery-of-solarus-dx/walkthrough/07-signs-of-madness",
  "publish": true,
  "title": "The Signs of Madness"
}
