{
  "authors": [
    "Christopho"
  ],
  "categories": [
    "Solarus"
  ],
  "creation_date": "2012-02-22",
  "excerpt": "Deux nouveaux épisodes de la soluce vidéo de [url=http://www.zelda-solarus.com/jeu-zsdx]Zelda Mystery of Solarus DX[/url] sont disponibles depuis....",
  "id": "2012-02-22-encore-deux-nouveaux-episodes",
  "image_thumbnail": "../../../../../assets/blog/default_article_thumbnail.jpg",
  "page_override": {
    "meta_description": "",
    "meta_image": "../../../../../assets/images/meta_image_fallback.jpg",
    "meta_title": "Encore deux nouveaux épisodes",
    "parent": "news",
    "slug": "news/2012-02-22-encore-deux-nouveaux-episodes",
    "title": "Encore deux nouveaux épisodes"
  },
  "page_slug": "news/2012-02-22-encore-deux-nouveaux-episodes",
  "publish": true,
  "title": "Encore deux nouveaux épisodes"
}