{
  "excerpt": "Comment détecter la présence du héros.",
  "id": "book-chapter-solarus-video-tutorial-basics-sensors",
  "index": 30,
  "origin_tree": "development/tutorials/solarus-video-tutorial",
  "page_override": {
    "meta_description": "Comment détecter la présence du héros.",
    "meta_image": "../../../../book/tutorial/solarus-video-tutorial/images/thumbnail.png",
    "meta_title": "Les capteurs",
    "parent": "development/tutorials/solarus-video-tutorial",
    "slug": "development/tutorials/solarus-video-tutorial/sensors",
    "title": "Les capteurs"
  },
  "page_slug": "development/tutorials/solarus-video-tutorial/sensors",
  "publish": true,
  "title": "Les capteurs"
}
