{
  "authors": [
    "Christopho"
  ],
  "categories": [
    "Solarus"
  ],
  "creation_date": "2012-12-16",
  "excerpt": "Joyeux anniversaire à [url=http://www.zelda-solarus.com/jeu-zsdx]Zelda Mystery of Solarus DX[/url] qui fête ses un an ce soir ! Il y a un an, je....",
  "id": "2012-12-16-1-an-apres",
  "image_thumbnail": "../../../../../assets/blog/default_article_thumbnail.jpg",
  "page_override": {
    "meta_description": "",
    "meta_image": "../../../../../assets/images/meta_image_fallback.jpg",
    "meta_title": "1 an après",
    "parent": "news",
    "slug": "news/2012-12-16-1-an-apres",
    "title": "1 an après"
  },
  "page_slug": "news/2012-12-16-1-an-apres",
  "publish": true,
  "title": "1 an après"
}