{
  "authors": [
    "Christopho"
  ],
  "categories": [
    "Solarus"
  ],
  "creation_date": "2001-08-30",
  "excerpt": "Salut à tous !\n\nLe quatrième donjon est quasiment terminé ! Il ne manque plus que le Boss, la Carte et la Boussole. Le donjon est assez court,....",
  "id": "2001-08-30-trois-screenshots-du-donjon-4",
  "image_thumbnail": "../../../../../assets/blog/default_article_thumbnail.jpg",
  "page_override": {
    "meta_description": "",
    "meta_image": "../../../../../assets/images/meta_image_fallback.jpg",
    "meta_title": "Trois screenshots du donjon 4",
    "parent": "news",
    "slug": "news/2001-08-30-trois-screenshots-du-donjon-4",
    "title": "Trois screenshots du donjon 4"
  },
  "page_slug": "news/2001-08-30-trois-screenshots-du-donjon-4",
  "publish": true,
  "title": "Trois screenshots du donjon 4"
}