{
  "authors": [
    "Christopho"
  ],
  "categories": [
    "Solarus"
  ],
  "creation_date": "2011-12-10",
  "excerpt": "Lorsque j'ai publié, il y a 6 semaines, le [url=http://www.youtube.com/watch?v=BUxREyXILLs]trailer[/url] annonçant la date du 16 décembre, je dois....",
  "id": "2011-12-10-j-6",
  "image_thumbnail": "../../../../../assets/blog/default_article_thumbnail.jpg",
  "page_override": {
    "meta_description": "",
    "meta_image": "../../../../../assets/images/meta_image_fallback.jpg",
    "meta_title": "J-6",
    "parent": "news",
    "slug": "news/2011-12-10-j-6",
    "title": "J-6"
  },
  "page_slug": "news/2011-12-10-j-6",
  "publish": true,
  "title": "J-6"
}