{
  "authors": [
    "Christopho"
  ],
  "categories": [
    "Solarus"
  ],
  "creation_date": "2008-12-06",
  "excerpt": "Bonsoir à tous :) La création des maps avance bien. Depuis la dernière mise à jour, la plupart des maps du monde extérieur ont été....",
  "id": "2008-12-06-zsdx-lediteur-de-maps",
  "image_thumbnail": "../../../../../assets/blog/default_article_thumbnail.jpg",
  "page_override": {
    "meta_description": "",
    "meta_image": "../../../../../assets/images/meta_image_fallback.jpg",
    "meta_title": "ZSDX : l'éditeur de maps",
    "parent": "news",
    "slug": "news/2008-12-06-zsdx-lediteur-de-maps",
    "title": "ZSDX : l'éditeur de maps"
  },
  "page_slug": "news/2008-12-06-zsdx-lediteur-de-maps",
  "publish": true,
  "title": "ZSDX : l'éditeur de maps"
}