{
  "authors": [
    "Christopho"
  ],
  "categories": [
    "Solarus"
  ],
  "creation_date": "2014-05-15",
  "excerpt": "If you are developing a quest with Solarus, you will definitely be interested in lots of new features of Solarus 1.2. But the most important one is....",
  "id": "2014-05-15-custom-entities",
  "image_thumbnail": "../../../../../assets/blog/default_article_thumbnail.jpg",
  "page_override": {
    "meta_description": "",
    "meta_image": "../../../../../assets/images/meta_image_fallback.jpg",
    "meta_title": "Custom entities",
    "parent": "news",
    "slug": "news/2014-05-15-custom-entities",
    "title": "Custom entities"
  },
  "page_slug": "news/2014-05-15-custom-entities",
  "publish": true,
  "title": "Custom entities"
}