{
  "authors": [
    "Diarandor"
  ],
  "categories": [
    "Solarus"
  ],
  "creation_date": "2018-03-03",
  "excerpt": "Ahoy there again! Today we have our worst screenshot until now of the project Children of Solarus. But do not worry, because the next ones may have....",
  "id": "2018-03-03-children-of-solarus-4th-fortnightly-screenshot",
  "image_thumbnail": "../../../../../assets/blog/default_article_thumbnail.jpg",
  "page_override": {
    "meta_description": "",
    "meta_image": "../../../../../assets/images/meta_image_fallback.jpg",
    "meta_title": "Children of Solarus (4th fortnightly screenshot)",
    "parent": "news",
    "slug": "news/2018-03-03-children-of-solarus-4th-fortnightly-screenshot",
    "title": "Children of Solarus (4th fortnightly screenshot)"
  },
  "page_slug": "news/2018-03-03-children-of-solarus-4th-fortnightly-screenshot",
  "publish": true,
  "title": "Children of Solarus (4th fortnightly screenshot)"
}