{
  "authors": [
    "Christopho"
  ],
  "categories": [
    "Solarus"
  ],
  "creation_date": "2003-07-26",
  "excerpt": "Après l'effort, le réconfort ! Je pars en vacances demain matin et pour environ deux semaines. Mais pendant mon absence le site ne sera pas à....",
  "id": "2003-07-26-vacances",
  "image_thumbnail": "../../../../../assets/blog/default_article_thumbnail.jpg",
  "page_override": {
    "meta_description": "",
    "meta_image": "../../../../../assets/images/meta_image_fallback.jpg",
    "meta_title": "Vacances",
    "parent": "news",
    "slug": "news/2003-07-26-vacances",
    "title": "Vacances"
  },
  "page_slug": "news/2003-07-26-vacances",
  "publish": true,
  "title": "Vacances"
}