{
  "excerpt": "How to scroll correctly between adjacent maps when they have different sizes.",
  "id": "book-chapter-solarus-video-tutorial-basics-scroll-between-maps",
  "index": 11,
  "origin_tree": "development/tutorials/solarus-video-tutorial",
  "page_override": {
    "meta_description": "How to scroll correctly between adjacent maps when they have different sizes.",
    "meta_image": "../../../../book/tutorial/solarus-video-tutorial/images/thumbnail.png",
    "meta_title": "How to scroll between maps of different sizes",
    "parent": "development/tutorials/solarus-video-tutorial",
    "slug": "development/tutorials/solarus-video-tutorial/scroll-between-maps",
    "title": "How to scroll between maps of different sizes"
  },
  "page_slug": "development/tutorials/solarus-video-tutorial/scroll-between-maps",
  "publish": true,
  "title": "How to scroll between maps of different sizes"
}
