{
  "authors": [
    "Christopho"
  ],
  "categories": [
    "Solarus"
  ],
  "creation_date": "2009-04-27",
  "excerpt": "Pour prolonger l'anniversaire des 7 ans de la sortie du premier [url=http://www.zelda-solarus.com/jeu-zs]Mystery of Solarus[/url], je vous ai....",
  "id": "2009-04-27-zelda-solarus-dx-en-video",
  "image_thumbnail": "../../../../../assets/blog/default_article_thumbnail.jpg",
  "page_override": {
    "meta_description": "",
    "meta_image": "../../../../../assets/images/meta_image_fallback.jpg",
    "meta_title": "Zelda Solarus DX en vidéo !",
    "parent": "news",
    "slug": "news/2009-04-27-zelda-solarus-dx-en-video",
    "title": "Zelda Solarus DX en vidéo !"
  },
  "page_slug": "news/2009-04-27-zelda-solarus-dx-en-video",
  "publish": true,
  "title": "Zelda Solarus DX en vidéo !"
}