{
  "authors": [
    "Christopho"
  ],
  "categories": [
    "Solarus"
  ],
  "creation_date": "2007-04-26",
  "excerpt": "Nous sommes le 26 avril 2007 : il y a un anniversaire à fêter ! :D Il y a 5 ans, le 26 avril 2002, est né Zelda : Mystery of Solarus. Ce jour a....",
  "id": "2007-04-26-zelda-mystery-of-solarus-5-ans",
  "image_thumbnail": "../../../../../assets/blog/default_article_thumbnail.jpg",
  "page_override": {
    "meta_description": "",
    "meta_image": "../../../../../assets/images/meta_image_fallback.jpg",
    "meta_title": "Zelda Mystery of Solarus : 5 ans !",
    "parent": "news",
    "slug": "news/2007-04-26-zelda-mystery-of-solarus-5-ans",
    "title": "Zelda Mystery of Solarus : 5 ans !"
  },
  "page_slug": "news/2007-04-26-zelda-mystery-of-solarus-5-ans",
  "publish": true,
  "title": "Zelda Mystery of Solarus : 5 ans !"
}