{
  "authors": [
    "Christopho"
  ],
  "categories": [
    "Solarus"
  ],
  "creation_date": "2007-04-01",
  "excerpt": "Depuis quelque temps, des rumeurs circulaient au sujet d'un Zelda en préparation sur Wii alors même que Twilight Princess était encore en phase de....",
  "id": "2007-04-01-wii-du-nouveau-sur-le-prochain-zelda",
  "image_thumbnail": "../../../../../assets/blog/default_article_thumbnail.jpg",
  "page_override": {
    "meta_description": "",
    "meta_image": "../../../../../assets/images/meta_image_fallback.jpg",
    "meta_title": "[Wii] Du nouveau sur le prochain Zelda",
    "parent": "news",
    "slug": "news/2007-04-01-wii-du-nouveau-sur-le-prochain-zelda",
    "title": "[Wii] Du nouveau sur le prochain Zelda"
  },
  "page_slug": "news/2007-04-01-wii-du-nouveau-sur-le-prochain-zelda",
  "publish": true,
  "title": "[Wii] Du nouveau sur le prochain Zelda"
}