{
  "authors": [
    "Christopho"
  ],
  "categories": [
    "Solarus"
  ],
  "creation_date": "2016-05-09",
  "excerpt": "Bonjour à toutes et à tous, Le développement de notre projet Zelda Mercuris' Chest continue ! Avec Solarus Quest Editor, Newlink se met au....",
  "id": "2016-05-09-des-images-de-zelda-mercuris-chest",
  "image_thumbnail": "../../../../../assets/blog/default_article_thumbnail.jpg",
  "page_override": {
    "meta_description": "",
    "meta_image": "../../../../../assets/images/meta_image_fallback.jpg",
    "meta_title": "Des images de Zelda Mercuris' Chest",
    "parent": "news",
    "slug": "news/2016-05-09-des-images-de-zelda-mercuris-chest",
    "title": "Des images de Zelda Mercuris' Chest"
  },
  "page_slug": "news/2016-05-09-des-images-de-zelda-mercuris-chest",
  "publish": true,
  "title": "Des images de Zelda Mercuris' Chest"
}