{
  "authors": [
    "Christopho"
  ],
  "categories": [
    "Solarus"
  ],
  "creation_date": "2016-04-01",
  "excerpt": "Depuis plusieurs années, et au risque de sacrifier la fréquence des mises à jour, nous développions dans le plus grand secret un projet d'une....",
  "id": "2016-04-01-decouvrez-la-solatrix-console-portable-nouvelle-generation",
  "image_thumbnail": "../../../../../assets/blog/default_article_thumbnail.jpg",
  "page_override": {
    "meta_description": "",
    "meta_image": "../../../../../assets/images/meta_image_fallback.jpg",
    "meta_title": "Découvrez la Solatrix, console portable nouvelle génération",
    "parent": "news",
    "slug": "news/2016-04-01-decouvrez-la-solatrix-console-portable-nouvelle-generation",
    "title": "Découvrez la Solatrix, console portable nouvelle génération"
  },
  "page_slug": "news/2016-04-01-decouvrez-la-solatrix-console-portable-nouvelle-generation",
  "publish": true,
  "title": "Découvrez la Solatrix, console portable nouvelle génération"
}