{
  "authors": [
    "Christopho"
  ],
  "categories": [
    "Solarus"
  ],
  "creation_date": "2012-04-05",
  "excerpt": "We are proud to announce a new version of our main creation Zelda Mystery of Solarus DX. This is version 1.5.0, and the quest is now available in....",
  "id": "2012-04-05-the-english-release",
  "image_thumbnail": "../../../../../assets/blog/default_article_thumbnail.jpg",
  "page_override": {
    "meta_description": "",
    "meta_image": "../../../../../assets/images/meta_image_fallback.jpg",
    "meta_title": "The English release!",
    "parent": "news",
    "slug": "news/2012-04-05-the-english-release",
    "title": "The English release!"
  },
  "page_slug": "news/2012-04-05-the-english-release",
  "publish": true,
  "title": "The English release!"
}