{
  "excerpt": "Les murs invisibles permettent de bloquer le passage à certains types d'entités souhaités (ennemis, PNJ ou héros).",
  "id": "book-chapter-solarus-video-tutorial-basics-invisible-walls",
  "index": 28,
  "origin_tree": "development/tutorials/solarus-video-tutorial",
  "page_override": {
    "meta_description": "Les murs invisibles permettent de bloquer le passage à certains types d'entités souhaités (ennemis, PNJ ou héros).",
    "meta_image": "../../../../book/tutorial/solarus-video-tutorial/images/thumbnail.png",
    "meta_title": "Les murs invisibles",
    "parent": "development/tutorials/solarus-video-tutorial",
    "slug": "development/tutorials/solarus-video-tutorial/invisible-walls",
    "title": "Les murs invisibles"
  },
  "page_slug": "development/tutorials/solarus-video-tutorial/invisible-walls",
  "publish": true,
  "title": "Les murs invisibles"
}
