{
  "categories": [
    "Video"
  ],
  "excerpt": "In this progressive tutorial series, you will learn how to develop a Zelda-like adventure game with Solarus and its Quest Editor.",
  "id": "book-solarus-video-tutorial",
  "image_thumbnail": "images/thumbnail.png",
  "page_override": {
    "meta_description": "In this progressive tutorial series, you will learn how to develop a Zelda-like adventure game with Solarus and its Quest Editor.",
    "meta_image": "images/thumbnail.png",
    "meta_title": "Solarus video tutorial",
    "parent": "development/tutorials",
    "slug": "development/tutorials/solarus-video-tutorial",
    "title": "Solarus video tutorial"
  },
  "page_slug": "development/tutorials/solarus-video-tutorial",
  "publish": true,
  "section": "tutorial",
  "title": "Solarus video tutorial"
}