{
  "authors": [
    "Christopho"
  ],
  "categories": [
    "Solarus"
  ],
  "creation_date": "2015-11-23",
  "excerpt": "Une nouvelle version de Solarus et de nos jeux vient de sortir ! Elle corrige essentiellement de nombreux petits bugs et améliore l'utilisation de....",
  "id": "2015-11-23-solarus-1-4-5-disponible-zelda-roth-supporte-les-joypads",
  "image_thumbnail": "../../../../../assets/blog/default_article_thumbnail.jpg",
  "page_override": {
    "meta_description": "",
    "meta_image": "../../../../../assets/images/meta_image_fallback.jpg",
    "meta_title": "Solarus 1.4.5 disponible, Zelda ROTH supporte les joypads",
    "parent": "news",
    "slug": "news/2015-11-23-solarus-1-4-5-disponible-zelda-roth-supporte-les-joypads",
    "title": "Solarus 1.4.5 disponible, Zelda ROTH supporte les joypads"
  },
  "page_slug": "news/2015-11-23-solarus-1-4-5-disponible-zelda-roth-supporte-les-joypads",
  "publish": true,
  "title": "Solarus 1.4.5 disponible, Zelda ROTH supporte les joypads"
}