{
  "authors": [
    "Olivier Cléro"
  ],
  "categories": [
    "Solarus"
  ],
  "creation_date": "2015-08-13",
  "excerpt": " Parfois, les poissons d'avril n'en sont pas, et celui de cette année va confirmer la tendance sur Zelda Solarus. Souvenez-vous qu'on avait....",
  "id": "2015-08-13-sortie-de-zelda-return-of-the-hylian-solarus-edition",
  "image_thumbnail": "../../../../../assets/blog/default_article_thumbnail.jpg",
  "page_override": {
    "meta_description": "",
    "meta_image": "../../../../../assets/images/meta_image_fallback.jpg",
    "meta_title": "Sortie de Zelda Return of the Hylian (Solarus Edition)",
    "parent": "news",
    "slug": "news/2015-08-13-sortie-de-zelda-return-of-the-hylian-solarus-edition",
    "title": "Sortie de Zelda Return of the Hylian (Solarus Edition)"
  },
  "page_slug": "news/2015-08-13-sortie-de-zelda-return-of-the-hylian-solarus-edition",
  "publish": true,
  "title": "Sortie de Zelda Return of the Hylian (Solarus Edition)"
}