{
  "authors": [
    "Christopho"
  ],
  "categories": [
    "Solarus"
  ],
  "creation_date": "2009-01-14",
  "excerpt": "Alors que la programmation vient de redémarrer en trombe après une pause dûe aux vacances, voici que Neovyze vous propose le tout premier artwork....",
  "id": "2009-01-14-zsdx-un-artwork-de-link",
  "image_thumbnail": "../../../../../assets/blog/default_article_thumbnail.jpg",
  "page_override": {
    "meta_description": "",
    "meta_image": "../../../../../assets/images/meta_image_fallback.jpg",
    "meta_title": "ZSDX : un artwork de Link !",
    "parent": "news",
    "slug": "news/2009-01-14-zsdx-un-artwork-de-link",
    "title": "ZSDX : un artwork de Link !"
  },
  "page_slug": "news/2009-01-14-zsdx-un-artwork-de-link",
  "publish": true,
  "title": "ZSDX : un artwork de Link !"
}