{
  "authors": [
    "Christopho"
  ],
  "categories": [
    "Solarus"
  ],
  "creation_date": "2016-07-27",
  "excerpt": "On July 27th of 2006, I wrote the first commit of the Solarus project.10 years later, the project has grown a lot! Today, we are proud to announce....",
  "id": "2016-07-27-solarus-1-5-released-now-with-a-quest-launcher",
  "image_thumbnail": "../../../../../assets/blog/default_article_thumbnail.jpg",
  "page_override": {
    "meta_description": "",
    "meta_image": "../../../../../assets/images/meta_image_fallback.jpg",
    "meta_title": "Solarus 1.5 released, now with a quest launcher!",
    "parent": "news",
    "slug": "news/2016-07-27-solarus-1-5-released-now-with-a-quest-launcher",
    "title": "Solarus 1.5 released, now with a quest launcher!"
  },
  "page_slug": "news/2016-07-27-solarus-1-5-released-now-with-a-quest-launcher",
  "publish": true,
  "title": "Solarus 1.5 released, now with a quest launcher!"
}