{
  "authors": [
    "Christopho"
  ],
  "categories": [
    "Solarus"
  ],
  "creation_date": "2017-01-16",
  "excerpt": "Comme promis, chaque semaine on va vous donner une capture d'écran de Zelda Mercuris' Chest par semaine (au moins !). Voici un travail en cours....",
  "id": "2017-01-16-zelda-mercuris-chest-une-image-de-donjon",
  "image_thumbnail": "../../../../../assets/blog/default_article_thumbnail.jpg",
  "page_override": {
    "meta_description": "",
    "meta_image": "../../../../../assets/images/meta_image_fallback.jpg",
    "meta_title": "Zelda Mercuris' Chest : une image de donjon",
    "parent": "news",
    "slug": "news/2017-01-16-zelda-mercuris-chest-une-image-de-donjon",
    "title": "Zelda Mercuris' Chest : une image de donjon"
  },
  "page_slug": "news/2017-01-16-zelda-mercuris-chest-une-image-de-donjon",
  "publish": true,
  "title": "Zelda Mercuris' Chest : une image de donjon"
}