{
  "age": "All publics",
  "authors": [
    "Solarus Team"
  ],
  "controls": [
    "keyboard",
    "gamepad"
  ],
  "downloads": [],
  "excerpt": "The second ambitious and original game by Solarus Team. A huge overworld for a huge adventure.",
  "icons": {
    "128x128": "icons/default_quest_icon_128x128.png",
    "16x16": "icons/default_quest_icon_16x16.png",
    "32x32": "icons/default_quest_icon_32x32.png",
    "64x64": "icons/default_quest_icon_64x64.png"
  },
  "id": "game-the-legend-of-zelda-mercuris-chest",
  "image_cover": "images/cover.jpg",
  "image_logo": "images/logo.png",
  "image_logo_author": "../../../assets/authors/solarus_team.png",
  "image_thumbnail": "images/thumbnail.png",
  "languages": [
    "English",
    "French"
  ],
  "licenses": [
    "GPL v3",
    "CC-BY-SA 4.0",
    "Proprietary (Fair use)"
  ],
  "medias": [
    {
      "image": "medias/screen_1.png",
      "thumbnail": "medias/screen_1.png",
      "type": "image"
    },
    {
      "image": "medias/screen_2.png",
      "thumbnail": "medias/screen_2.png",
      "type": "image"
    },
    {
      "image": "medias/screen_3.png",
      "thumbnail": "medias/screen_3.png",
      "type": "image"
    },
    {
      "image": "medias/screen_4.png",
      "thumbnail": "medias/screen_4.png",
      "type": "image"
    },
    {
      "image": "medias/screen_5.png",
      "thumbnail": "medias/screen_5.png",
      "type": "image"
    },
    {
      "image": "medias/screen_6.png",
      "thumbnail": "medias/screen_6.png",
      "type": "image"
    },
    {
      "image": "medias/screen_7.png",
      "thumbnail": "medias/screen_7.png",
      "type": "image"
    },
    {
      "image": "medias/screen_8.png",
      "thumbnail": "medias/screen_8.png",
      "type": "image"
    }
  ],
  "page_override": {
    "meta_description": "The ambitious, second original Zelda fangame by Solarus Team.",
    "meta_image": "images/thumbnail.png",
    "meta_title": "The Legend of Zelda: Mercuris Chest",
    "slug": "games/the-legend-of-zelda-mercuris-chest",
    "title": "The Legend of Zelda: Mercuris Chest"
  },
  "page_slug": "games/the-legend-of-zelda-mercuris-chest",
  "players": 1,
  "publish": true,
  "release_date": false,
  "solarus_version": "1.6.x",
  "source_code": "https://gitlab.com/solarus-games/zelda-mercuris-chest",
  "states": [
    "In development"
  ],
  "title": "The Legend of Zelda: Mercuris Chest",
  "types": [
    "Action-RPG",
    "Adventure"
  ],
  "version": "-"
}