{
  "authors": [
    "Christopho"
  ],
  "categories": [
    "Solarus"
  ],
  "creation_date": "2014-08-03",
  "excerpt": "Vous êtes de plus en plus nombreux à utiliser Solarus pour créer votre propre jeu et nous vous en remercions. Une nouvelle version du moteur vient....",
  "id": "2014-08-03-solarus-1-2-1-disponible-nouveaux-tutos-en-video",
  "image_thumbnail": "../../../../../assets/blog/default_article_thumbnail.jpg",
  "page_override": {
    "meta_description": "",
    "meta_image": "../../../../../assets/images/meta_image_fallback.jpg",
    "meta_title": "Solarus 1.2.1 disponible, nouveaux tutos en vidéo",
    "parent": "news",
    "slug": "news/2014-08-03-solarus-1-2-1-disponible-nouveaux-tutos-en-video",
    "title": "Solarus 1.2.1 disponible, nouveaux tutos en vidéo"
  },
  "page_slug": "news/2014-08-03-solarus-1-2-1-disponible-nouveaux-tutos-en-video",
  "publish": true,
  "title": "Solarus 1.2.1 disponible, nouveaux tutos en vidéo"
}