{
  "excerpt": "Comment créer un magasin sans aucun script nécessaire, à l'aide du type d'entité article de magasin.",
  "id": "book-chapter-solarus-video-tutorial-basics-shops",
  "index": 35,
  "origin_tree": "development/tutorials/solarus-video-tutorial",
  "page_override": {
    "meta_description": "Comment créer un magasin sans aucun script nécessaire, à l'aide du type d'entité article de magasin.",
    "meta_image": "../../../../book/tutorial/solarus-video-tutorial/images/thumbnail.png",
    "meta_title": "Les magasins",
    "parent": "development/tutorials/solarus-video-tutorial",
    "slug": "development/tutorials/solarus-video-tutorial/shops",
    "title": "Les magasins"
  },
  "page_slug": "development/tutorials/solarus-video-tutorial/shops",
  "publish": true,
  "title": "Les magasins"
}
