{
  "authors": [
    "Christopho"
  ],
  "categories": [
    "Solarus"
  ],
  "creation_date": "2003-02-08",
  "excerpt": "Avec un peu de retard, les forums sont enfin à nouveau disponibles ! Nous les avons déménagés sur un compte sur free.fr afin de diminuer les....",
  "id": "2003-02-08-reouverture-des-forums",
  "image_thumbnail": "../../../../../assets/blog/default_article_thumbnail.jpg",
  "page_override": {
    "meta_description": "",
    "meta_image": "../../../../../assets/images/meta_image_fallback.jpg",
    "meta_title": "Réouverture des forums !",
    "parent": "news",
    "slug": "news/2003-02-08-reouverture-des-forums",
    "title": "Réouverture des forums !"
  },
  "page_slug": "news/2003-02-08-reouverture-des-forums",
  "publish": true,
  "title": "Réouverture des forums !"
}