{
  "authors": [
    "Christopho"
  ],
  "categories": [
    "Solarus"
  ],
  "creation_date": "2017-04-04",
  "excerpt": "XD2 ou non, le screenshot de la semaine continue concernant Zelda Mercuris Chest. Aujourd'hui on vous présente un travail en cours par....",
  "id": "2017-04-04-au-pays-des-morts-vivants",
  "image_thumbnail": "../../../../../assets/blog/default_article_thumbnail.jpg",
  "page_override": {
    "meta_description": "",
    "meta_image": "../../../../../assets/images/meta_image_fallback.jpg",
    "meta_title": "Au pays des morts-vivants",
    "parent": "news",
    "slug": "news/2017-04-04-au-pays-des-morts-vivants",
    "title": "Au pays des morts-vivants"
  },
  "page_slug": "news/2017-04-04-au-pays-des-morts-vivants",
  "publish": true,
  "title": "Au pays des morts-vivants"
}