{
  "age": "All publics",
  "authors": [
    "Solarus Team",
    "Vincent Jouillat"
  ],
  "controls": [
    "keyboard",
    "gamepad"
  ],
  "downloads": [],
  "excerpt": "The remake of Vincent Jouillat's second game. Richer, bigger and harder than the first one.",
  "icons": {
    "128x128": "icons/icon_128x128.png",
    "16x16": "icons/icon_16x16.png",
    "32x32": "icons/icon_32x32.png",
    "64x64": "icons/icon_64x64.png"
  },
  "id": "game-the-legend-of-zelda-onilink-begins-se",
  "image_cover": "images/cover.jpg",
  "image_logo": "images/logo.png",
  "image_logo_author": "../../../assets/authors/solarus_team.png",
  "image_thumbnail": "images/thumbnail.png",
  "languages": [
    "English",
    "French"
  ],
  "licenses": [
    "GPL v3",
    "CC-BY-SA 4.0",
    "Proprietary (Fair use)"
  ],
  "medias": [
    {
      "image": "medias/screen_1.jpg",
      "thumbnail": "medias/screen_1.jpg",
      "type": "image"
    },
    {
      "image": "medias/screen_2.jpg",
      "thumbnail": "medias/screen_2.jpg",
      "type": "image"
    },
    {
      "image": "medias/screen_3.jpg",
      "thumbnail": "medias/screen_3.jpg",
      "type": "image"
    },
    {
      "image": "medias/screen_4.jpg",
      "thumbnail": "medias/screen_4.jpg",
      "type": "image"
    }
  ],
  "page_override": {
    "meta_description": "The Solarus remake of Vincent Jouillat's second Zelda game.",
    "meta_image": "images/thumbnail.png",
    "meta_title": "The Legend of Zelda: Onilink Begins SE",
    "slug": "games/the-legend-of-zelda-onilink-begins-se",
    "title": "The Legend of Zelda: Onilink Begins SE"
  },
  "page_slug": "games/the-legend-of-zelda-onilink-begins-se",
  "players": 1,
  "publish": true,
  "release_date": "",
  "solarus_version": "1.6.x",
  "source_code": "https://gitlab.com/solarus-games/zelda-olb-se",
  "states": [
    "In development"
  ],
  "title": "The Legend of Zelda: Onilink Begins SE",
  "types": [
    "Action-RPG",
    "Adventure"
  ],
  "version": "-"
}