{
  "authors": [
    "Christopho"
  ],
  "categories": [
    "Solarus"
  ],
  "creation_date": "2013-07-27",
  "excerpt": "I have finished another new feature for Solarus 1.1: you can now separate a map in different regions. When you are in a region, you cannot see....",
  "id": "2013-07-27-new-entity-type-separators",
  "image_thumbnail": "../../../../../assets/blog/default_article_thumbnail.jpg",
  "page_override": {
    "meta_description": "",
    "meta_image": "../../../../../assets/images/meta_image_fallback.jpg",
    "meta_title": "New entity type: separators",
    "parent": "news",
    "slug": "news/2013-07-27-new-entity-type-separators",
    "title": "New entity type: separators"
  },
  "page_slug": "news/2013-07-27-new-entity-type-separators",
  "publish": true,
  "title": "New entity type: separators"
}